{
 "add_total_row": 0,
 "creation": "2021-08-16 13:20:12.264653",
 "disable_prepared_report": 0,
 "disabled": 0,
 "docstatus": 0,
 "doctype": "Report",
 "idx": 0,
 "is_standard": "Yes",
 "modified": "2021-08-20 13:07:05.459469",
 "modified_by": "Administrator",
 "module": "Mykeapp",
 "name": "Athlete",
 "owner": "Administrator",
 "prepared_report": 0,
 "ref_doctype": "Athlete",
 "report_name": "Athlete",
 "report_type": "Script Report",
 "roles": [
  {
   "role": "System Manager"
  }
 ]
}