{
 "custom_fields": [
  {
   "_assign": null,
   "_comments": null,
   "_liked_by": null,
   "_user_tags": null,
   "allow_on_submit": 0,
   "bold": 0,
   "collapsible": 0,
   "collapsible_depends_on": null,
   "columns": 0,
   "creation": "2021-08-20 15:16:01.529335",
   "default": null,
   "depends_on": null,
   "description": null,
   "docstatus": 0,
   "dt": "Student",
   "fetch_from": null,
   "fetch_if_empty": 0,
   "fieldname": "grade",
   "fieldtype": "Data",
   "hidden": 0,
   "idx": 8,
   "ignore_user_permissions": 0,
   "ignore_xss_filter": 0,
   "in_global_search": 0,
   "in_list_view": 0,
   "in_standard_filter": 0,
   "insert_after": "amended_from",
   "label": "Grade",
   "modified": "2021-08-20 15:16:01.529335",
   "modified_by": "Administrator",
   "name": "Student-grade",
   "no_copy": 0,
   "options": null,
   "owner": "Administrator",
   "parent": null,
   "parentfield": null,
   "parenttype": null,
   "permlevel": 0,
   "precision": "",
   "print_hide": 0,
   "print_hide_if_no_value": 0,
   "print_width": null,
   "read_only": 0,
   "report_hide": 0,
   "reqd": 0,
   "search_index": 0,
   "translatable": 1,
   "unique": 0,
   "width": null
  }
 ],
 "custom_perms": [],
 "doctype": "Student",
 "property_setters": [
  {
   "_assign": null,
   "_comments": null,
   "_liked_by": null,
   "_user_tags": null,
   "creation": "2021-08-20 15:20:09.895901",
   "default_value": null,
   "doc_type": "Student",
   "docstatus": 0,
   "doctype_or_field": "DocType",
   "field_name": null,
   "idx": 0,
   "modified": "2021-08-20 15:20:09.895901",
   "modified_by": "Administrator",
   "name": "Student-read_only_onload",
   "owner": "Administrator",
   "parent": null,
   "parentfield": null,
   "parenttype": null,
   "property": "read_only_onload",
   "property_type": "Check",
   "value": null
  }
 ],
 "sync_on_migrate": 1
}